%YAML 1.1
%TAG !u! tag:unity3d.com,2011:
--- !u!114 &11400000
MonoBehaviour:
  m_ObjectHideFlags: 0
  m_CorrespondingSourceObject: {fileID: 0}
  m_PrefabInstance: {fileID: 0}
  m_PrefabAsset: {fileID: 0}
  m_GameObject: {fileID: 0}
  m_Enabled: 1
  m_EditorHideFlags: 0
  m_Script: {fileID: 11500000, guid: ba856164d8177b445acedab76f08506e, type: 3}
  m_Name: bob
  m_EditorClassIdentifier: 
  inGameName: Bob
  hp: 10
  pa: 6
  spells:
  - {fileID: 11400000, guid: c2546f6b06089e24bae761214ae3e406, type: 2}
  - {fileID: 11400000, guid: c2546f6b06089e24bae761214ae3e406, type: 2}
  - {fileID: 0}
  - {fileID: 11400000, guid: c2546f6b06089e24bae761214ae3e406, type: 2}
